…
    ## Warning: `cols` is now required.
    ## Please use `cols = c(study_data)`

``` r
study_data_tidy
```

    ## # A tibble: 160 x 4
    ##    study_arm subject_id week  observation
    ##    <chr>     <chr>      <chr>       <dbl>
    ##  1 Control   1          1            0.2 
    ##  2 Control   2          1            1.13
    ##  3 Control   3          1            1.77
    ##  4 Control   4          1            1.04
    ##  5 Control   5          1            0.47
    ##  6 Control   6          1            2.37
    ##  7 Control   7          1            0.03
    ##  8 Control   8          1           -0.08
    ##  9 Control   9          1            0.08
    ## 10 Control   10         1            2.14
    ## # … with 150 more rows
…
``` r
set.seed(1)

sim_results = rerun (10000, sim_regression(beta1 = 0)) %>% 
  bind_rows()

sim_results
```

    ## # A tibble: 10,000 x 2
    ##    b1_estimate p_value
    ##          <dbl>   <dbl>
    ##  1     0.296     0.798
    ##  2     0.00648   0.996
    ##  3    -2.16      0.155
    ##  4    -0.454     0.718
    ##  5    -0.514     0.730
    ##  6     1.71      0.243
    ##  7    -1.18      0.322
    ##  8     1.09      0.366
    ##  9     0.806     0.377
    ## 10     2.35      0.131
    ## # … with 9,990 more rows
…
